{
  "type": "service_account",
  "project_id": "congo-live",
  "private_key_id": "4c8d6b30383e1dc3f2afb7525051b6df61688c04",
  "private_key": "-----BEGIN PRIVATE KEY-----\nMIIEvAIBADANBgkqhkiG9w0BAQEFAASCBKYwggSiAgEAAoIBAQC5kdGiw9vwH5p1\nBRqwbxqsJ3MVkWrQwOxf9QzDdQv13zbIk0X4VWJ//HO7APAYsxfSSSyy48lASE63\nSVcj48Ar1pcWhIqr6kFUmWf/OjoHow/SrciTK1kXomle2Gg023wZbtRu0ZSBfKw8\n8fQoNE5Q6PVPUF7jsZVgF01zBHJyg/bejf7VntzwLRKVNjKLXMLaEJIOO/u59JXt\ngLHQZeF1/om7cbmpgz0eTeLWBluufJOJe+kFWWQ2aUVA99iPiG+7DLWaqspzpcqM\noJ+UQpNpy8ey93jg6YpChy3m+NslYtaWcIdU51xDsFAtZu8GlMMUGAVuK1osfp+x\nWMtWNFU3AgMBAAECggEAMxfrpQmRWo2RDQxBO3fz25enD7awttaPnqINiBmHmASE\nBHjMSKJV0xBy2vfYo6xX8D3WkVC3fjwKdFu8ovSX2lok0n3e4pPGtiDg6fyhsq2a\nczMHKUJDrwa4RXWHR5pxEl2aHwMUhQyLLeKei51PPObPeC2UWtPv4Xu5BuSgEFg9\nHuvyGIGESdT5kqTBy/CYN8qDBD5qEP/kMNmRESguSHfdD8G2C8dT0bVySfiaIDDw\nytmc7PnuRWn20mUXcXK+Gfxfa4XU+2AAqbe5dwnZQMr16VUs9+RMXVg+W5wfSGXN\nfXRzwtUcxbDrlcnaaUho4sprVBhMUNFLLRunWoea4QKBgQD66eecOAgg0QJ+13FF\nPkUFtiDy0QPQvPS4gv01TvyEouJAmlrSYq7ZteIXKDcxIT41nlJPmRc21jwG/yo4\ngOpmMNDzYPLM3krGpqGmBr5a5JLyDTZiH+zWtSKuUIUFdSdIzqUVT4LxLR+m7Jsr\nDQqZuU15DX9ZimHeVXptsip71wKBgQC9VNELtK8TaQrKyvc4o6LI6tYqeav8xl2I\naQx25f60V9J0j77Ppeu5i25igsKH+/Aai/t1czn3asVs5jglBoyfMJtCxQTMuh8q\njFW2Yxl8mj6MkLh3RnEcQi9Zt5ndabxIUtgBSwR56p/v0Sh9ab3FoV4xO2olobaq\nKDylo1DFoQKBgC9ruYw6wr6BAfm6+fteM2lK7Js3iYMP0yh0CSrkDLF8n0oaYgPV\nBrq6t0otHZE5eSplC6Vjh5Gjl6Cy5OXc52/81eDJd9nkQTmeEHryV1OSU3tPp/GP\nmxFRFobfTOSlKZGHDIgkiNjP8GV53jGau2AmN1Ajjuf7UVfVy9ejjoftAoGAKyPp\nYiZwgha8O8sVm9VFYUyJMjJ5Kua0J0HwciMj70nXjXG3g68F0EhiBZZP5xZT9miR\nCokP2z178L1ga6dbYWZ86jDkUBXUxigl26InC4pF2FedgKgPW+YEzgeUyquuGDiw\nOVMzmOgKO2XIORNgB2kmgkdMf3iim5EBiKh23iECgYAfRiiOc2WinMe9XakztNgM\nFeGBX0Zf2dppbnj8IrgecaxQEVIx01kRZr/XnOhyfzejZnLnlbZSRuUbHjh8/PSG\n/WJ5lws+hNIn2Xzl7PjMcVZLnArZ48hL+E+o/2+7dBcbx3ExHIopwv5/C59RjYmv\ndU7BQhWSm0BG6O0CswVzYg==\n-----END PRIVATE KEY-----\n",
  "client_email": "firebase-adminsdk-s7bgq@congo-live.iam.gserviceaccount.com",
  "client_id": "111702238046339675586",
  "auth_uri": "https://accounts.google.com/o/oauth2/auth",
  "token_uri": "https://oauth2.googleapis.com/token",
  "auth_provider_x509_cert_url": "https://www.googleapis.com/oauth2/v1/certs",
  "client_x509_cert_url": "https://www.googleapis.com/robot/v1/metadata/x509/firebase-adminsdk-s7bgq%40congo-live.iam.gserviceaccount.com"
}
